%YAML 1.1
%TAG !u! tag:unity3d.com,2011:
--- !u!687078895 &4343727234628468602
SpriteAtlas:
  m_ObjectHideFlags: 0
  m_PrefabParentObject: {fileID: 0}
  m_PrefabInternal: {fileID: 0}
  m_Name: Arts
  m_EditorData:
    textureSettings:
      serializedVersion: 2
      anisoLevel: 1
      compressionQuality: 50
      maxTextureSize: 1024
      textureCompression: 3
      filterMode: 0
      generateMipMaps: 0
      readable: 0
      crunchedCompression: 0
      sRGB: 0
    platformSettings: []
    packingParameters:
      serializedVersion: 2
      padding: 2
      blockOffset: 1
      allowAlphaSplitting: 0
      enableRotation: 0
      enableTightPacking: 0
    packedHash:
      serializedVersion: 2
      Hash: b137324052a989f2bc777ef526a760b2
    variantMultiplier: 1
    bindAsDefault: 1
    finalFormat: 47
    hashString: b137324052a989f2bc777ef526a760b2
    totalSpriteSurfaceArea: 940048
    packables:
    - {fileID: 102900000, guid: 82118d0dfcf10cf4ea1200ec47417087, type: 3}
    packedSpriteRenderDataKeys:
    - 30c0db89413b1624993d8147b17df408: 21300000
    - 10fbc87ecebbfd6449340457df0ce8ca: 21300000
    - 3976f2a5a8a7919449a6ee649521f765: 21300000
    - 9cd897854bbb8c949a6097ad7915e424: 21300000
    - 28ce383e6deffe741b2473506a08d979: 21300000
    - ae9ba736b6456944299661d40827931e: 21300000
    - d62423e94da1e7041a0b3ea42948a900: 21300000
    - e697f0c8365a70a4e8322915e58f4075: 21300000
    - d2d23001a0630ce46b62be43cef7407c: 21300000
    - 63e5c1497eedab34d87dfe7cb08238e2: 21300000
    - 5dea0bff2638b1e4fb0d336320069a2b: 21300000
    - cf3fe67d557872c4eb728e6e74ba6081: 21300000
    - 26e567a9cc39d0344a50095af764f6ce: 21300000
    - f64c97ee16c81224aa9b18e077c437f7: 21300000
    - 184a6f79a2df1fc4ab0ddc5f92af61c9: 21300000
    - f0eade1b4b3b21744bbe3a6f308db294: 21300000
    - cbfe59ed442d5bd47a6b5900a61345de: 21300000
    - 70dd61dc6095e1b4589e92ce0fc0b0cf: 21300000
    - 6d27131142b6e5e4d8b5e81dfc53d534: 21300000
    - 9097ac15262999342aaa7cdb2c358417: 21300000
    - 5377fa7b3aa795247abe5126a85e238c: 21300000
    - ee547a87c63f9e5419291d93ed454823: 21300000
    - 0435d3993fd6bed4182704e605266f96: 21300000
    - 6c5406702272b5c45acee07abde74b4f: 21300000
    - 39bc20479abebb2499151f57fc3ae92a: 21300000
    - 840ebae49d77b324ebf6ce981acb0269: 21300000
    - d7c8daa5488910f4693f8433f27e9303: 21300000
    - b7c59a2bc03fd9c40a5a05deb2f2a171: 21300000
  m_MasterAtlas: {fileID: 0}
  m_PackedSprites:
  - {fileID: 21300000, guid: 30c0db89413b1624993d8147b17df408, type: 3}
  - {fileID: 21300000, guid: 10fbc87ecebbfd6449340457df0ce8ca, type: 3}
  - {fileID: 21300000, guid: 3976f2a5a8a7919449a6ee649521f765, type: 3}
  - {fileID: 21300000, guid: 9cd897854bbb8c949a6097ad7915e424, type: 3}
  - {fileID: 21300000, guid: 28ce383e6deffe741b2473506a08d979, type: 3}
  - {fileID: 21300000, guid: ae9ba736b6456944299661d40827931e, type: 3}
  - {fileID: 21300000, guid: d62423e94da1e7041a0b3ea42948a900, type: 3}
  - {fileID: 21300000, guid: e697f0c8365a70a4e8322915e58f4075, type: 3}
  - {fileID: 21300000, guid: d2d23001a0630ce46b62be43cef7407c, type: 3}
  - {fileID: 21300000, guid: 63e5c1497eedab34d87dfe7cb08238e2, type: 3}
  - {fileID: 21300000, guid: 5dea0bff2638b1e4fb0d336320069a2b, type: 3}
  - {fileID: 21300000, guid: cf3fe67d557872c4eb728e6e74ba6081, type: 3}
  - {fileID: 21300000, guid: 26e567a9cc39d0344a50095af764f6ce, type: 3}
  - {fileID: 21300000, guid: f64c97ee16c81224aa9b18e077c437f7, type: 3}
  - {fileID: 21300000, guid: 184a6f79a2df1fc4ab0ddc5f92af61c9, type: 3}
  - {fileID: 21300000, guid: f0eade1b4b3b21744bbe3a6f308db294, type: 3}
  - {fileID: 21300000, guid: cbfe59ed442d5bd47a6b5900a61345de, type: 3}
  - {fileID: 21300000, guid: 70dd61dc6095e1b4589e92ce0fc0b0cf, type: 3}
  - {fileID: 21300000, guid: 6d27131142b6e5e4d8b5e81dfc53d534, type: 3}
  - {fileID: 21300000, guid: 9097ac15262999342aaa7cdb2c358417, type: 3}
  - {fileID: 21300000, guid: 5377fa7b3aa795247abe5126a85e238c, type: 3}
  - {fileID: 21300000, guid: ee547a87c63f9e5419291d93ed454823, type: 3}
  - {fileID: 21300000, guid: 0435d3993fd6bed4182704e605266f96, type: 3}
  - {fileID: 21300000, guid: 6c5406702272b5c45acee07abde74b4f, type: 3}
  - {fileID: 21300000, guid: 39bc20479abebb2499151f57fc3ae92a, type: 3}
  - {fileID: 21300000, guid: 840ebae49d77b324ebf6ce981acb0269, type: 3}
  - {fileID: 21300000, guid: d7c8daa5488910f4693f8433f27e9303, type: 3}
  - {fileID: 21300000, guid: b7c59a2bc03fd9c40a5a05deb2f2a171, type: 3}
  m_PackedSpriteNamesToIndex:
  - MallIcon
  - building5
  - building4
  - building1
  - building3
  - building2
  - MALL
  - FARM
  - PARK
  - FACTORY
  - building
  - HOUSES
  - PauseIcon
  - Road
  - LoadingIcon
  - Road-without-marks
  - PlayIcon
  - Star
  - Grass
  - smoke
  - CreditsIcon
  - People Icon
  - Meat Icon
  - LifeQualityIcon
  - InstructionsIcon
  - coin
  - Grass2
  - WhiteSquare
  m_Tag: Arts
  m_IsVariant: 0
