%YAML 1.1
%TAG !u! tag:unity3d.com,2011:
--- !u!114 &11400000
MonoBehaviour:
  m_ObjectHideFlags: 0
  m_PrefabParentObject: {fileID: 0}
  m_PrefabInternal: {fileID: 0}
  m_GameObject: {fileID: 0}
  m_Enabled: 1
  m_EditorHideFlags: 0
  m_Script: {fileID: 11500000, guid: 1a83c5c3f2101384d9da492761384df3, type: 3}
  m_Name: Farm
  m_EditorClassIdentifier: 
  type: 4
  sprite: {fileID: 21300000, guid: e697f0c8365a70a4e8322915e58f4075, type: 3}
  buildTime: 20
  price: 300
  periodicity: 15
  income: 75
  food: 15
  lifeQuality: -3
  people: 0
  startIncome: 0
  startFood: 0
  startLifeQuality: 0
  startPeople: 0
