%YAML 1.1
%TAG !u! tag:unity3d.com,2011:
--- !u!114 &11400000
MonoBehaviour:
  m_ObjectHideFlags: 0
  m_PrefabParentObject: {fileID: 0}
  m_PrefabInternal: {fileID: 0}
  m_GameObject: {fileID: 0}
  m_Enabled: 1
  m_EditorHideFlags: 0
  m_Script: {fileID: 11500000, guid: 1a83c5c3f2101384d9da492761384df3, type: 3}
  m_Name: Park
  m_EditorClassIdentifier: 
  type: 3
  sprite: {fileID: 21300000, guid: d2d23001a0630ce46b62be43cef7407c, type: 3}
  buildTime: 15
  price: 500
  periodicity: 3
  income: 15
  food: -1
  lifeQuality: 3
  people: 0
  startIncome: 0
  startFood: 0
  startLifeQuality: 10
  startPeople: 0
