%YAML 1.1
%TAG !u! tag:unity3d.com,2011:
--- !u!78 &1
TagManager:
  serializedVersion: 2
  tags:
  - Building
  - Ground
  - Grass
  - COIN
  - FOOD
  - PEOPLE
  - LIFE_QUALITY
  layers:
  - Default
  - TransparentFX
  - Ignore Raycast
  - 
  - Water
  - UI
  - 
  - 
  - Building
  - Coin
  - Grass
  - Ground
  - 
  - 
  - 
  - 
  - 
  - 
  - 
  - 
  - 
  - 
  - 
  - 
  - 
  - 
  - 
  - 
  - 
  - 
  - 
  - 
  m_SortingLayers:
  - name: Default
    uniqueID: 0
    locked: 0
  - name: Ground
    uniqueID: 2360842723
    locked: 0
  - name: Buildings
    uniqueID: 1442610547
    locked: 0
  - name: Collectables
    uniqueID: 2409942117
    locked: 0
  - name: HUD
    uniqueID: 2914477533
    locked: 0
